[
    {
        "id": "B001",
        "city": "Rotterdam",
        "geolocation": [
            51.9279515,
            4.420367
        ]
    },
    {
        "id": "B002",
        "city": "Madrid",
        "geolocation": [
            40.4378698,
            -3.8196197
        ]
    },
    {
        "id": "B003",
        "city": "Munich",
        "geolocation": [
            48.1438307,
            11.466985
        ]
    }
]
